Q[7]{-8.48595e-07, -0.691859, 7.96624e-07, 1.91545, -2.26728e-07, 0.346406, 5.69779e-07},Vector3D(0, -0.819, 1.649)
Q[7]{0.00807918, -0.691191, -0.0105796, 1.91342, 0.000213642, 0.347769, -0.00695044},Vector3D(-0.0035, -0.819, 1.649)
Q[7]{0.0161331, -0.691198, -0.0211285, 1.91328, 0.000445607, 0.347864, -0.0138871},Vector3D(-0.007, -0.819, 1.649)
Q[7]{0.0242003, -0.691241, -0.0316933, 1.91308, 0.000675729, 0.347997, -0.0208376},Vector3D(-0.0105, -0.819, 1.649)
Q[7]{0.0322646, -0.691317, -0.0422538, 1.91283, 0.000905317, 0.34817, -0.0277853},Vector3D(-0.014, -0.819, 1.649)
Q[7]{0.0403251, -0.691429, -0.0528086, 1.91251, 0.00113385, 0.34838, -0.0347291},Vector3D(-0.0175, -0.819, 1.649)
Q[7]{0.0483808, -0.691575, -0.063356, 1.91214, 0.00136082, 0.34863, -0.041668},Vector3D(-0.021, -0.819, 1.649)
Q[7]{0.0564308, -0.691756, -0.0738946, 1.91171, 0.00158569, 0.348918, -0.048601},Vector3D(-0.0245, -0.819, 1.649)
Q[7]{0.0644741, -0.691971, -0.0844229, 1.91122, 0.00180797, 0.349244, -0.055527},Vector3D(-0.028, -0.819, 1.649)
Q[7]{0.0725097, -0.69222, -0.0949395, 1.91068, 0.00202714, 0.349609, -0.0624449},Vector3D(-0.0315, -0.819, 1.649)
Q[7]{0.0805366, -0.692503, -0.105443, 1.91008, 0.0022427, 0.350013, -0.0693538},Vector3D(-0.035, -0.819, 1.649)
Q[7]{0.0885541, -0.69282, -0.115932, 1.90942, 0.00245416, 0.350455, -0.0762526},Vector3D(-0.0385, -0.819, 1.649)
Q[7]{0.096561, -0.693171, -0.126404, 1.9087, 0.00266103, 0.350935, -0.0831403},Vector3D(-0.042, -0.819, 1.649)
Q[7]{0.104557, -0.693556, -0.136859, 1.90793, 0.00286282, 0.351453, -0.0900159},Vector3D(-0.0455, -0.819, 1.649)
Q[7]{0.11254, -0.693974, -0.147295, 1.90709, 0.00305906, 0.35201, -0.0968784},Vector3D(-0.049, -0.819, 1.649)
Q[7]{0.12051, -0.694425, -0.157711, 1.9062, 0.00324928, 0.352605, -0.103727},Vector3D(-0.0525, -0.819, 1.649)
Q[7]{0.128466, -0.694909, -0.168105, 1.90526, 0.00343304, 0.353237, -0.11056},Vector3D(-0.056, -0.819, 1.649)
Q[7]{0.136408, -0.695425, -0.178476, 1.90425, 0.00360987, 0.353908, -0.117378},Vector3D(-0.0595, -0.819, 1.649)
Q[7]{0.144333, -0.695974, -0.188823, 1.90319, 0.00377936, 0.354617, -0.124178},Vector3D(-0.063, -0.819, 1.649)
Q[7]{0.152243, -0.696555, -0.199144, 1.90207, 0.00394106, 0.355363, -0.130961},Vector3D(-0.0665, -0.819, 1.649)
Q[7]{0.160135, -0.697168, -0.209438, 1.9009, 0.00409456, 0.356147, -0.137725},Vector3D(-0.07, -0.819, 1.649)
Q[7]{0.168008, -0.697813, -0.219704, 1.89967, 0.00423948, 0.356968, -0.14447},Vector3D(-0.0735, -0.819, 1.649)
Q[7]{0.175864, -0.698488, -0.229941, 1.89838, 0.0043754, 0.357827, -0.151194},Vector3D(-0.077, -0.819, 1.649)
Q[7]{0.183699, -0.699195, -0.240147, 1.89703, 0.00450196, 0.358723, -0.157896},Vector3D(-0.0805, -0.819, 1.649)
Q[7]{0.191515, -0.699932, -0.250321, 1.89563, 0.00461879, 0.359656, -0.164577},Vector3D(-0.084, -0.819, 1.649)
Q[7]{0.19931, -0.7007, -0.260462, 1.89417, 0.00472553, 0.360627, -0.171234},Vector3D(-0.0875, -0.819, 1.649)
Q[7]{0.207083, -0.701497, -0.270569, 1.89265, 0.00482185, 0.361634, -0.177868},Vector3D(-0.091, -0.819, 1.649)
Q[7]{0.214834, -0.702324, -0.280641, 1.89108, 0.00490743, 0.362678, -0.184478},Vector3D(-0.0945, -0.819, 1.649)
Q[7]{0.222562, -0.703179, -0.290676, 1.88945, 0.00498195, 0.363758, -0.191062},Vector3D(-0.098, -0.819, 1.649)
Q[7]{0.230267, -0.704064, -0.300674, 1.88776, 0.00504512, 0.364875, -0.19762},Vector3D(-0.1015, -0.819, 1.649)
Q[7]{0.237948, -0.704977, -0.310634, 1.88602, 0.00509664, 0.366028, -0.204151},Vector3D(-0.105, -0.819, 1.649)
Q[7]{0.245605, -0.705918, -0.320555, 1.88422, 0.00513626, 0.367217, -0.210655},Vector3D(-0.1085, -0.819, 1.649)
Q[7]{0.253237, -0.706887, -0.330435, 1.88237, 0.00516372, 0.368443, -0.217131},Vector3D(-0.112, -0.819, 1.649)
Q[7]{0.260844, -0.707882, -0.340274, 1.88046, 0.00517878, 0.369704, -0.223579},Vector3D(-0.1155, -0.819, 1.649)
Q[7]{0.268425, -0.708905, -0.350071, 1.87849, 0.0051812, 0.371001, -0.229997},Vector3D(-0.119, -0.819, 1.649)
Q[7]{0.275979, -0.709954, -0.359825, 1.87647, 0.00517079, 0.372333, -0.236385},Vector3D(-0.1225, -0.819, 1.649)
Q[7]{0.283507, -0.711028, -0.369535, 1.87439, 0.00514734, 0.373701, -0.242743},Vector3D(-0.126, -0.819, 1.649)
Q[7]{0.291009, -0.712129, -0.379201, 1.87226, 0.00511067, 0.375104, -0.24907},Vector3D(-0.1295, -0.819, 1.649)
Q[7]{0.298482, -0.713254, -0.388822, 1.87007, 0.00506061, 0.376542, -0.255366},Vector3D(-0.133, -0.819, 1.649)
Q[7]{0.305929, -0.714404, -0.398396, 1.86783, 0.00499701, 0.378014, -0.261629},Vector3D(-0.1365, -0.819, 1.649)
Q[7]{0.313347, -0.715578, -0.407924, 1.86553, 0.00491972, 0.379522, -0.26786},Vector3D(-0.14, -0.819, 1.649)
Q[7]{0.320737, -0.716775, -0.417404, 1.86317, 0.00482861, 0.381064, -0.274058},Vector3D(-0.1435, -0.819, 1.649)
Q[7]{0.328099, -0.717996, -0.426836, 1.86076, 0.00472358, 0.38264, -0.280223},Vector3D(-0.147, -0.819, 1.649)
Q[7]{0.335432, -0.71924, -0.436219, 1.8583, 0.00460452, 0.38425, -0.286354},Vector3D(-0.1505, -0.819, 1.649)
Q[7]{0.342737, -0.720506, -0.445553, 1.85578, 0.00447135, 0.385894, -0.292451},Vector3D(-0.154, -0.819, 1.649)
Q[7]{0.350012, -0.721794, -0.454838, 1.85321, 0.00432397, 0.387572, -0.298513},Vector3D(-0.1575, -0.819, 1.649)
Q[7]{0.357259, -0.723103, -0.464071, 1.85058, 0.00416235, 0.389284, -0.30454},Vector3D(-0.161, -0.819, 1.649)
Q[7]{0.364476, -0.724434, -0.473254, 1.84789, 0.00398642, 0.391028, -0.310532},Vector3D(-0.1645, -0.819, 1.649)
Q[7]{0.371664, -0.725785, -0.482386, 1.84516, 0.00379614, 0.392807, -0.316489},Vector3D(-0.168, -0.819, 1.649)
Q[7]{0.378823, -0.727156, -0.491466, 1.84237, 0.00359148, 0.394618, -0.32241},Vector3D(-0.1715, -0.819, 1.649)
Q[7]{0.385952, -0.728547, -0.500494, 1.83952, 0.00337244, 0.396462, -0.328295},Vector3D(-0.175, -0.819, 1.649)
Q[7]{0.393052, -0.729956, -0.509469, 1.83662, 0.003139, 0.398338, -0.334143},Vector3D(-0.1785, -0.819, 1.649)
Q[7]{0.400123, -0.731385, -0.518391, 1.83367, 0.00289116, 0.400247, -0.339956},Vector3D(-0.182, -0.819, 1.649)
Q[7]{0.407164, -0.732832, -0.52726, 1.83066, 0.00262896, 0.402188, -0.345731},Vector3D(-0.1855, -0.819, 1.649)
Q[7]{0.414176, -0.734297, -0.536076, 1.8276, 0.0023524, 0.404162, -0.35147},Vector3D(-0.189, -0.819, 1.649)
Q[7]{0.421159, -0.735779, -0.544837, 1.82448, 0.00206152, 0.406167, -0.357171},Vector3D(-0.1925, -0.819, 1.649)
Q[7]{0.428112, -0.737278, -0.553545, 1.82131, 0.00175636, 0.408204, -0.362835},Vector3D(-0.196, -0.819, 1.649)
Q[7]{0.435037, -0.738793, -0.562198, 1.81809, 0.00143698, 0.410273, -0.368462},Vector3D(-0.1995, -0.819, 1.649)
Q[7]{0.441933, -0.740325, -0.570797, 1.81481, 0.00110344, 0.412373, -0.374052},Vector3D(-0.203, -0.819, 1.649)
Q[7]{0.4488, -0.741872, -0.579341, 1.81148, 0.000755801, 0.414504, -0.379604},Vector3D(-0.2065, -0.819, 1.649)
Q[7]{0.455638, -0.743435, -0.58783, 1.8081, 0.000394141, 0.416666, -0.385118},Vector3D(-0.21, -0.819, 1.649)
Q[7]{0.462448, -0.745012, -0.596264, 1.80467, 1.85428e-05, 0.418859, -0.390595},Vector3D(-0.2135, -0.819, 1.649)
Q[7]{0.46923, -0.746604, -0.604644, 1.80118, -0.000370906, 0.421082, -0.396034},Vector3D(-0.217, -0.819, 1.649)
Q[7]{0.475984, -0.748209, -0.612968, 1.79764, -0.000774108, 0.423336, -0.401436},Vector3D(-0.2205, -0.819, 1.649)
Q[7]{0.48271, -0.749828, -0.621236, 1.79404, -0.00119096, 0.42562, -0.406799},Vector3D(-0.224, -0.819, 1.649)
Q[7]{0.489409, -0.751461, -0.62945, 1.7904, -0.00162136, 0.427935, -0.412125},Vector3D(-0.2275, -0.819, 1.649)
Q[7]{0.49608, -0.753106, -0.637608, 1.7867, -0.0020652, 0.430279, -0.417413},Vector3D(-0.231, -0.819, 1.649)
Q[7]{0.502725, -0.754763, -0.645711, 1.78295, -0.00252235, 0.432654, -0.422664},Vector3D(-0.2345, -0.819, 1.649)
Q[7]{0.509342, -0.756432, -0.653758, 1.77914, -0.00299269, 0.435057, -0.427876},Vector3D(-0.238, -0.819, 1.649)
Q[7]{0.515934, -0.758113, -0.66175, 1.77529, -0.00347611, 0.437491, -0.433052},Vector3D(-0.2415, -0.819, 1.649)
Q[7]{0.522499, -0.759805, -0.669687, 1.77138, -0.00397246, 0.439953, -0.438189},Vector3D(-0.245, -0.819, 1.649)
Q[7]{0.529039, -0.761507, -0.677569, 1.76742, -0.00448161, 0.442445, -0.443289},Vector3D(-0.2485, -0.819, 1.649)
Q[7]{0.535554, -0.76322, -0.685395, 1.7634, -0.00500343, 0.444966, -0.448352},Vector3D(-0.252, -0.819, 1.649)
Q[7]{0.542043, -0.764943, -0.693167, 1.75934, -0.00553778, 0.447516, -0.453378},Vector3D(-0.2555, -0.819, 1.649)
Q[7]{0.548508, -0.766676, -0.700883, 1.75522, -0.00608452, 0.450094, -0.458366},Vector3D(-0.259, -0.819, 1.649)
Q[7]{0.554948, -0.768418, -0.708545, 1.75105, -0.0066435, 0.452701, -0.463318},Vector3D(-0.2625, -0.819, 1.649)
Q[7]{0.561365, -0.770169, -0.716152, 1.74683, -0.00721457, 0.455337, -0.468232},Vector3D(-0.266, -0.819, 1.649)
Q[7]{0.567758, -0.771929, -0.723704, 1.74256, -0.00779758, 0.458, -0.47311},Vector3D(-0.2695, -0.819, 1.649)
Q[7]{0.574128, -0.773696, -0.731202, 1.73823, -0.00839239, 0.460692, -0.477951},Vector3D(-0.273, -0.819, 1.649)
Q[7]{0.580476, -0.775472, -0.738646, 1.73385, -0.00899885, 0.463412, -0.482755},Vector3D(-0.2765, -0.819, 1.649)
Q[7]{0.586801, -0.777255, -0.746036, 1.72942, -0.00961679, 0.46616, -0.487524},Vector3D(-0.28, -0.819, 1.649)
Q[7]{0.593105, -0.779046, -0.753372, 1.72494, -0.0102461, 0.468935, -0.492256},Vector3D(-0.2835, -0.819, 1.649)
Q[7]{0.599387, -0.780844, -0.760654, 1.72041, -0.0108865, 0.471739, -0.496952},Vector3D(-0.287, -0.819, 1.649)
Q[7]{0.605648, -0.782648, -0.767882, 1.71583, -0.011538, 0.47457, -0.501613},Vector3D(-0.2905, -0.819, 1.649)
Q[7]{0.611889, -0.784458, -0.775058, 1.71119, -0.0122004, 0.477428, -0.506238},Vector3D(-0.294, -0.819, 1.649)
Q[7]{0.618109, -0.786275, -0.78218, 1.7065, -0.0128735, 0.480313, -0.510827},Vector3D(-0.2975, -0.819, 1.649)
Q[7]{0.62431, -0.788097, -0.78925, 1.70176, -0.0135572, 0.483226, -0.515382},Vector3D(-0.301, -0.819, 1.649)
Q[7]{0.630493, -0.789925, -0.796267, 1.69697, -0.0142513, 0.486166, -0.519901},Vector3D(-0.3045, -0.819, 1.649)
Q[7]{0.636656, -0.791758, -0.803232, 1.69213, -0.0149557, 0.489133, -0.524386},Vector3D(-0.308, -0.819, 1.649)
Q[7]{0.642802, -0.793596, -0.810145, 1.68723, -0.0156702, 0.492127, -0.528837},Vector3D(-0.3115, -0.819, 1.649)
Q[7]{0.648929, -0.795439, -0.817007, 1.68229, -0.0163946, 0.495148, -0.533253},Vector3D(-0.315, -0.819, 1.649)
Q[7]{0.65504, -0.797285, -0.823817, 1.67729, -0.0171289, 0.498196, -0.537635},Vector3D(-0.3185, -0.819, 1.649)
Q[7]{0.661134, -0.799136, -0.830575, 1.67224, -0.0178728, 0.501271, -0.541984},Vector3D(-0.322, -0.819, 1.649)
Q[7]{0.667212, -0.800991, -0.837283, 1.66714, -0.0186263, 0.504372, -0.546299},Vector3D(-0.3255, -0.819, 1.649)
Q[7]{0.673275, -0.802849, -0.843941, 1.66198, -0.0193891, 0.507499, -0.550581},Vector3D(-0.329, -0.819, 1.649)
Q[7]{0.679322, -0.804711, -0.850548, 1.65678, -0.0201612, 0.510654, -0.554829},Vector3D(-0.3325, -0.819, 1.649)
Q[7]{0.685355, -0.806576, -0.857105, 1.65152, -0.0209424, 0.513835, -0.559046},Vector3D(-0.336, -0.819, 1.649)
Q[7]{0.691373, -0.808443, -0.863612, 1.64621, -0.0217326, 0.517042, -0.563229},Vector3D(-0.3395, -0.819, 1.649)
Q[7]{0.697379, -0.810314, -0.87007, 1.64084, -0.0225316, 0.520275, -0.567381},Vector3D(-0.343, -0.819, 1.649)
Q[7]{0.703371, -0.812186, -0.876479, 1.63543, -0.0233393, 0.523535, -0.5715},Vector3D(-0.3465, -0.819, 1.649)
Q[7]{0.709351, -0.814061, -0.88284, 1.62996, -0.0241555, 0.526822, -0.575588},Vector3D(-0.35, -0.819, 1.649)
Q[7]{0.71074, -0.815322, -0.882389, 1.62991, -0.0282662, 0.526926, -0.582605},Vector3D(-0.35, -0.819, 1.649)
Q[7]{0.712122, -0.816621, -0.881944, 1.62994, -0.0323848, 0.526993, -0.589645},Vector3D(-0.35, -0.819, 1.649)
Q[7]{0.713503, -0.81792, -0.881498, 1.62996, -0.0365033, 0.527067, -0.596685},Vector3D(-0.35, -0.819, 1.649)
Q[7]{0.714883, -0.819219, -0.88105, 1.62999, -0.0406217, 0.527146, -0.603726},Vector3D(-0.35, -0.819, 1.649)
Q[7]{0.716263, -0.820518, -0.880599, 1.63001, -0.0447399, 0.527232, -0.610767},Vector3D(-0.35, -0.819, 1.649)
Q[7]{0.717642, -0.821816, -0.880147, 1.63004, -0.0488579, 0.527323, -0.617808},Vector3D(-0.35, -0.819, 1.649)
Q[7]{0.71902, -0.823115, -0.879692, 1.63006, -0.0529756, 0.527421, -0.62485},Vector3D(-0.35, -0.819, 1.649)
Q[7]{0.720398, -0.824413, -0.879235, 1.63008, -0.057093, 0.527524, -0.631892},Vector3D(-0.35, -0.819, 1.649)
Q[7]{0.721775, -0.825711, -0.878776, 1.63011, -0.0612099, 0.527633, -0.638935},Vector3D(-0.35, -0.819, 1.649)
Q[7]{0.723151, -0.827009, -0.878315, 1.63014, -0.0653265, 0.527748, -0.645979},Vector3D(-0.35, -0.819, 1.649)
Q[7]{0.724527, -0.828306, -0.877852, 1.63016, -0.0694426, 0.52787, -0.653023},Vector3D(-0.35, -0.819, 1.649)
Q[7]{0.725903, -0.829604, -0.877387, 1.63019, -0.0735582, 0.527997, -0.660068},Vector3D(-0.35, -0.819, 1.649)
Q[7]{0.727277, -0.830901, -0.87692, 1.63021, -0.0776732, 0.52813, -0.667114},Vector3D(-0.35, -0.819, 1.649)
Q[7]{0.728651, -0.832198, -0.876451, 1.63024, -0.0817875, 0.528269, -0.674161},Vector3D(-0.35, -0.819, 1.649)
Q[7]{0.730025, -0.833495, -0.875979, 1.63026, -0.0859013, 0.528413, -0.681208},Vector3D(-0.35, -0.819, 1.649)
Q[7]{0.731398, -0.834792, -0.875506, 1.63029, -0.0900143, 0.528564, -0.688257},Vector3D(-0.35, -0.819, 1.649)
Q[7]{0.732771, -0.836089, -0.87503, 1.63032, -0.0941266, 0.528721, -0.695306},Vector3D(-0.35, -0.819, 1.649)
Q[7]{0.734143, -0.837386, -0.874553, 1.63034, -0.098238, 0.528884, -0.702357},Vector3D(-0.35, -0.819, 1.649)
Q[7]{0.735515, -0.838683, -0.874073, 1.63037, -0.102349, 0.529053, -0.709409},Vector3D(-0.35, -0.819, 1.649)
Q[7]{0.736886, -0.839979, -0.873592, 1.6304, -0.106458, 0.529227, -0.716462},Vector3D(-0.35, -0.819, 1.649)
Q[7]{0.738257, -0.841276, -0.873108, 1.63042, -0.110567, 0.529408, -0.723517},Vector3D(-0.35, -0.819, 1.649)
Q[7]{0.739627, -0.842572, -0.872622, 1.63045, -0.114675, 0.529594, -0.730572},Vector3D(-0.35, -0.819, 1.649)
Q[7]{0.740998, -0.843869, -0.872134, 1.63048, -0.118782, 0.529787, -0.73763},Vector3D(-0.35, -0.819, 1.649)
Q[7]{0.742368, -0.845165, -0.871645, 1.63051, -0.122887, 0.529986, -0.744688},Vector3D(-0.35, -0.819, 1.649)
Q[7]{0.743737, -0.846461, -0.871153, 1.63053, -0.126992, 0.53019, -0.751748},Vector3D(-0.35, -0.819, 1.649)
Q[7]{0.745106, -0.847758, -0.870659, 1.63056, -0.131095, 0.5304, -0.75881},Vector3D(-0.35, -0.819, 1.649)
Q[7]{0.746475, -0.849054, -0.870163, 1.63059, -0.135197, 0.530617, -0.765874},Vector3D(-0.35, -0.819, 1.649)
Q[7]{0.747844, -0.85035, -0.869665, 1.63062, -0.139298, 0.530839, -0.772939},Vector3D(-0.35, -0.819, 1.649)
Q[7]{0.749213, -0.851647, -0.869165, 1.63065, -0.143398, 0.531068, -0.780006},Vector3D(-0.35, -0.819, 1.649)
Q[7]{0.750581, -0.852943, -0.868663, 1.63068, -0.147496, 0.531302, -0.787074},Vector3D(-0.35, -0.819, 1.649)
Q[7]{0.751949, -0.854239, -0.868159, 1.63071, -0.151593, 0.531542, -0.794145},Vector3D(-0.35, -0.819, 1.649)
Q[7]{0.753317, -0.855535, -0.867653, 1.63073, -0.155688, 0.531789, -0.801218},Vector3D(-0.35, -0.819, 1.649)
Q[7]{0.754685, -0.856832, -0.867145, 1.63076, -0.159782, 0.532041, -0.808292},Vector3D(-0.35, -0.819, 1.649)
Q[7]{0.756053, -0.858128, -0.866635, 1.63079, -0.163874, 0.5323, -0.815369},Vector3D(-0.35, -0.819, 1.649)
Q[7]{0.75742, -0.859425, -0.866123, 1.63082, -0.167965, 0.532564, -0.822447},Vector3D(-0.35, -0.819, 1.649)
Q[7]{0.758788, -0.860721, -0.865609, 1.63085, -0.172053, 0.532834, -0.829528},Vector3D(-0.35, -0.819, 1.649)
Q[7]{0.760155, -0.862018, -0.865093, 1.63088, -0.176141, 0.533111, -0.836612},Vector3D(-0.35, -0.819, 1.649)
Q[7]{0.761522, -0.863314, -0.864575, 1.63091, -0.180226, 0.533393, -0.843697},Vector3D(-0.35, -0.819, 1.649)
Q[7]{0.76289, -0.864611, -0.864055, 1.63094, -0.18431, 0.533681, -0.850785},Vector3D(-0.35, -0.819, 1.649)
Q[7]{0.764257, -0.865908, -0.863533, 1.63097, -0.188392, 0.533976, -0.857875},Vector3D(-0.35, -0.819, 1.649)
Q[7]{0.765624, -0.867204, -0.863009, 1.631, -0.192472, 0.534276, -0.864968},Vector3D(-0.35, -0.819, 1.649)
Q[7]{0.766991, -0.868501, -0.862483, 1.63103, -0.196549, 0.534582, -0.872063},Vector3D(-0.35, -0.819, 1.649)
Q[7]{0.768359, -0.869798, -0.861956, 1.63106, -0.200625, 0.534895, -0.879161},Vector3D(-0.35, -0.819, 1.649)
Q[7]{0.769726, -0.871095, -0.861426, 1.63109, -0.204699, 0.535213, -0.886262},Vector3D(-0.35, -0.819, 1.649)
Q[7]{0.771093, -0.872392, -0.860894, 1.63112, -0.208771, 0.535538, -0.893365},Vector3D(-0.35, -0.819, 1.649)
Q[7]{0.772461, -0.87369, -0.86036, 1.63116, -0.212841, 0.535868, -0.900471},Vector3D(-0.35, -0.819, 1.649)
Q[7]{0.773828, -0.874987, -0.859824, 1.63119, -0.216908, 0.536205, -0.90758},Vector3D(-0.35, -0.819, 1.649)
Q[7]{0.775196, -0.876285, -0.859286, 1.63122, -0.220973, 0.536547, -0.914692},Vector3D(-0.35, -0.819, 1.649)
Q[7]{0.776564, -0.877582, -0.858746, 1.63125, -0.225036, 0.536896, -0.921807},Vector3D(-0.35, -0.819, 1.649)
Q[7]{0.777932, -0.87888, -0.858204, 1.63128, -0.229097, 0.537251, -0.928925},Vector3D(-0.35, -0.819, 1.649)
Q[7]{0.7793, -0.880178, -0.85766, 1.63131, -0.233155, 0.537611, -0.936046},Vector3D(-0.35, -0.819, 1.649)
Q[7]{0.780668, -0.881476, -0.857114, 1.63134, -0.237211, 0.537978, -0.94317},Vector3D(-0.35, -0.819, 1.649)
Q[7]{0.782037, -0.882774, -0.856567, 1.63138, -0.241264, 0.538351, -0.950298},Vector3D(-0.35, -0.819, 1.649)
Q[7]{0.783405, -0.884072, -0.856017, 1.63141, -0.245315, 0.53873, -0.957428},Vector3D(-0.35, -0.819, 1.649)
Q[7]{0.784774, -0.885371, -0.855465, 1.63144, -0.249363, 0.539114, -0.964562},Vector3D(-0.35, -0.819, 1.649)
Q[7]{0.786143, -0.886669, -0.854911, 1.63147, -0.253408, 0.539505, -0.971699},Vector3D(-0.35, -0.819, 1.649)
Q[7]{0.787513, -0.887968, -0.854356, 1.6315, -0.257451, 0.539902, -0.97884},Vector3D(-0.35, -0.819, 1.649)
Q[7]{0.788883, -0.889267, -0.853798, 1.63153, -0.261491, 0.540305, -0.985984},Vector3D(-0.35, -0.819, 1.649)
Q[7]{0.790252, -0.890566, -0.853238, 1.63157, -0.265528, 0.540714, -0.993132},Vector3D(-0.35, -0.819, 1.649)
Q[7]{0.791623, -0.891865, -0.852677, 1.6316, -0.269562, 0.54113, -1.00028},Vector3D(-0.35, -0.819, 1.649)
Q[7]{0.792993, -0.893164, -0.852113, 1.63163, -0.273594, 0.541551, -1.00744},Vector3D(-0.35, -0.819, 1.649)
Q[7]{0.794364, -0.894464, -0.851547, 1.63166, -0.277622, 0.541978, -1.0146},Vector3D(-0.35, -0.819, 1.649)
Q[7]{0.795735, -0.895764, -0.85098, 1.6317, -0.281647, 0.542411, -1.02176},Vector3D(-0.35, -0.819, 1.649)
Q[7]{0.797107, -0.897063, -0.85041, 1.63173, -0.28567, 0.542851, -1.02893},Vector3D(-0.35, -0.819, 1.649)
Q[7]{0.798479, -0.898363, -0.849839, 1.63176, -0.289689, 0.543296, -1.0361},Vector3D(-0.35, -0.819, 1.649)
Q[7]{0.799851, -0.899664, -0.849265, 1.63179, -0.293705, 0.543748, -1.04327},Vector3D(-0.35, -0.819, 1.649)
Q[7]{0.801224, -0.900964, -0.84869, 1.63183, -0.297718, 0.544206, -1.05045},Vector3D(-0.35, -0.819, 1.649)
Q[7]{0.802597, -0.902264, -0.848112, 1.63186, -0.301728, 0.544669, -1.05763},Vector3D(-0.35, -0.819, 1.649)
Q[7]{0.80397, -0.903565, -0.847533, 1.63189, -0.305734, 0.545139, -1.06482},Vector3D(-0.35, -0.819, 1.649)
Q[7]{0.805344, -0.904866, -0.846952, 1.63192, -0.309737, 0.545615, -1.07201},Vector3D(-0.35, -0.819, 1.649)
Q[7]{0.806719, -0.906167, -0.846368, 1.63196, -0.313736, 0.546097, -1.07921},Vector3D(-0.35, -0.819, 1.649)
Q[7]{0.808094, -0.907468, -0.845783, 1.63199, -0.317732, 0.546585, -1.08641},Vector3D(-0.35, -0.819, 1.649)
Q[7]{0.809469, -0.90877, -0.845195, 1.63202, -0.321725, 0.547079, -1.09361},Vector3D(-0.35, -0.819, 1.649)
Q[7]{0.810845, -0.910071, -0.844606, 1.63206, -0.325713, 0.547579, -1.10082},Vector3D(-0.35, -0.819, 1.649)
Q[7]{0.812221, -0.911373, -0.844015, 1.63209, -0.329699, 0.548085, -1.10803},Vector3D(-0.35, -0.819, 1.649)
Q[7]{0.813598, -0.912675, -0.843422, 1.63212, -0.33368, 0.548597, -1.11525},Vector3D(-0.35, -0.819, 1.649)
Q[7]{0.814975, -0.913977, -0.842826, 1.63215, -0.337658, 0.549115, -1.12247},Vector3D(-0.35, -0.819, 1.649)
Q[7]{0.816352, -0.915279, -0.842229, 1.63219, -0.341632, 0.54964, -1.1297},Vector3D(-0.35, -0.819, 1.649)
Q[7]{0.817731, -0.916582, -0.84163, 1.63222, -0.345602, 0.55017, -1.13693},Vector3D(-0.35, -0.819, 1.649)
Q[7]{0.819109, -0.917884, -0.841029, 1.63225, -0.349568, 0.550706, -1.14417},Vector3D(-0.35, -0.819, 1.649)
Q[7]{0.820489, -0.919187, -0.840426, 1.63229, -0.35353, 0.551249, -1.15141},Vector3D(-0.35, -0.819, 1.649)
Q[7]{0.821868, -0.92049, -0.839821, 1.63232, -0.357488, 0.551797, -1.15865},Vector3D(-0.35, -0.819, 1.649)
Q[7]{0.823249, -0.921793, -0.839213, 1.63235, -0.361442, 0.552352, -1.16591},Vector3D(-0.35, -0.819, 1.649)
Q[7]{0.82463, -0.923096, -0.838604, 1.63238, -0.365392, 0.552913, -1.17316},Vector3D(-0.35, -0.819, 1.649)
Q[7]{0.826011, -0.924399, -0.837993, 1.63242, -0.369338, 0.553479, -1.18042},Vector3D(-0.35, -0.819, 1.649)
Q[7]{0.827393, -0.925703, -0.83738, 1.63245, -0.37328, 0.554052, -1.18769},Vector3D(-0.35, -0.819, 1.649)
Q[7]{0.828776, -0.927006, -0.836765, 1.63248, -0.377217, 0.554631, -1.19496},Vector3D(-0.35, -0.819, 1.649)
Q[7]{0.830159, -0.92831, -0.836148, 1.63252, -0.38115, 0.555216, -1.20224},Vector3D(-0.35, -0.819, 1.649)
Q[7]{0.831543, -0.929614, -0.835529, 1.63255, -0.385078, 0.555806, -1.20952},Vector3D(-0.35, -0.819, 1.649)
Q[7]{0.832927, -0.930918, -0.834908, 1.63258, -0.389002, 0.556403, -1.21681},Vector3D(-0.35, -0.819, 1.649)
Q[7]{0.834312, -0.932222, -0.834285, 1.63261, -0.392922, 0.557006, -1.2241},Vector3D(-0.35, -0.819, 1.649)
Q[7]{0.835698, -0.933526, -0.833661, 1.63265, -0.396837, 0.557615, -1.2314},Vector3D(-0.35, -0.819, 1.649)
Q[7]{0.837084, -0.93483, -0.833034, 1.63268, -0.400747, 0.55823, -1.23871},Vector3D(-0.35, -0.819, 1.649)
Q[7]{0.838471, -0.936135, -0.832405, 1.63271, -0.404652, 0.558851, -1.24602},Vector3D(-0.35, -0.819, 1.649)
Q[7]{0.839859, -0.937439, -0.831774, 1.63274, -0.408553, 0.559478, -1.25333},Vector3D(-0.35, -0.819, 1.649)
Q[7]{0.841247, -0.938744, -0.831141, 1.63278, -0.412449, 0.56011, -1.26065},Vector3D(-0.35, -0.819, 1.649)
Q[7]{0.842636, -0.940049, -0.830506, 1.63281, -0.41634, 0.560749, -1.26798},Vector3D(-0.35, -0.819, 1.649)
Q[7]{0.844025, -0.941353, -0.82987, 1.63284, -0.420227, 0.561394, -1.27531},Vector3D(-0.35, -0.819, 1.649)
Q[7]{0.845415, -0.942658, -0.829231, 1.63287, -0.424108, 0.562045, -1.28265},Vector3D(-0.35, -0.819, 1.649)
Q[7]{0.846806, -0.943963, -0.82859, 1.63291, -0.427984, 0.562702, -1.29},Vector3D(-0.35, -0.819, 1.649)
Q[7]{0.842525, -0.939422, -0.823652, 1.6349, -0.426788, 0.561278, -1.28452},Vector3D(-0.3465, -0.819, 1.6505)
Q[7]{0.838259, -0.934855, -0.818657, 1.63673, -0.425591, 0.559949, -1.27905},Vector3D(-0.343, -0.819, 1.652)
Q[7]{0.833976, -0.930292, -0.81361, 1.6385, -0.424399, 0.558661, -1.27357},Vector3D(-0.3395, -0.819, 1.6535)
Q[7]{0.829675, -0.925734, -0.80851, 1.64021, -0.423215, 0.557413, -1.26808},Vector3D(-0.336, -0.819, 1.655)
Q[7]{0.825356, -0.921182, -0.803357, 1.64185, -0.422038, 0.556207, -1.2626},Vector3D(-0.3325, -0.819, 1.6565)
Q[7]{0.821019, -0.916636, -0.798152, 1.64343, -0.420869, 0.555042, -1.2571},Vector3D(-0.329, -0.819, 1.658)
Q[7]{0.816663, -0.912097, -0.792893, 1.64494, -0.419709, 0.553918, -1.2516},Vector3D(-0.3255, -0.819, 1.6595)
Q[7]{0.81229, -0.907564, -0.787583, 1.64639, -0.418559, 0.552836, -1.2461},Vector3D(-0.322, -0.819, 1.661)
Q[7]{0.807897, -0.903039, -0.782219, 1.64778, -0.417419, 0.551795, -1.24059},Vector3D(-0.3185, -0.819, 1.6625)
Q[7]{0.803487, -0.898523, -0.776804, 1.6491, -0.41629, 0.550797, -1.23508},Vector3D(-0.315, -0.819, 1.664)
Q[7]{0.799058, -0.894015, -0.771337, 1.65035, -0.415173, 0.54984, -1.22956},Vector3D(-0.3115, -0.819, 1.6655)
Q[7]{0.79461, -0.889516, -0.765818, 1.65154, -0.414068, 0.548925, -1.22403},Vector3D(-0.308, -0.819, 1.667)
Q[7]{0.790144, -0.885027, -0.760247, 1.65267, -0.412976, 0.548053, -1.2185},Vector3D(-0.3045, -0.819, 1.6685)
Q[7]{0.78566, -0.880547, -0.754625, 1.65373, -0.411897, 0.547223, -1.21296},Vector3D(-0.301, -0.819, 1.67)
Q[7]{0.781158, -0.876079, -0.748952, 1.65472, -0.410833, 0.546435, -1.20742},Vector3D(-0.2975, -0.819, 1.6715)
Q[7]{0.776637, -0.871621, -0.743228, 1.65566, -0.409785, 0.54569, -1.20187},Vector3D(-0.294, -0.819, 1.673)
Q[7]{0.772098, -0.867175, -0.737453, 1.65652, -0.408752, 0.544988, -1.19631},Vector3D(-0.2905, -0.819, 1.6745)
Q[7]{0.767541, -0.86274, -0.731628, 1.65733, -0.407736, 0.544328, -1.19075},Vector3D(-0.287, -0.819, 1.676)
Q[7]{0.762966, -0.858318, -0.725754, 1.65807, -0.406737, 0.543712, -1.18517},Vector3D(-0.2835, -0.819, 1.6775)
Q[7]{0.758373, -0.853909, -0.719829, 1.65874, -0.405756, 0.543139, -1.1796},Vector3D(-0.28, -0.819, 1.679)
Q[7]{0.753763, -0.849512, -0.713856, 1.65935, -0.404794, 0.542609, -1.17401},Vector3D(-0.2765, -0.819, 1.6805)
Q[7]{0.749135, -0.845129, -0.707833, 1.65989, -0.403852, 0.542122, -1.16842},Vector3D(-0.273, -0.819, 1.682)
Q[7]{0.74449, -0.84076, -0.701763, 1.66037, -0.40293, 0.541679, -1.16282},Vector3D(-0.2695, -0.819, 1.6835)
Q[7]{0.739828, -0.836405, -0.695644, 1.66079, -0.402028, 0.541279, -1.15721},Vector3D(-0.266, -0.819, 1.685)
Q[7]{0.73515, -0.832064, -0.689477, 1.66114, -0.401149, 0.540922, -1.15159},Vector3D(-0.2625, -0.819, 1.6865)
Q[7]{0.730454, -0.827738, -0.683263, 1.66142, -0.400292, 0.54061, -1.14597},Vector3D(-0.259, -0.819, 1.688)
Q[7]{0.725743, -0.823428, -0.677002, 1.66164, -0.399458, 0.540341, -1.14034},Vector3D(-0.2555, -0.819, 1.6895)
Q[7]{0.721016, -0.819132, -0.670695, 1.6618, -0.398648, 0.540116, -1.1347},Vector3D(-0.252, -0.819, 1.691)
Q[7]{0.716273, -0.814853, -0.664342, 1.66189, -0.397862, 0.539934, -1.12905},Vector3D(-0.2485, -0.819, 1.6925)
Q[7]{0.711514, -0.810589, -0.657944, 1.66192, -0.397102, 0.539797, -1.1234},Vector3D(-0.245, -0.819, 1.694)
Q[7]{0.706741, -0.806342, -0.651501, 1.66189, -0.396368, 0.539704, -1.11773},Vector3D(-0.2415, -0.819, 1.6955)
Q[7]{0.701954, -0.802111, -0.645013, 1.66178, -0.395661, 0.539655, -1.11206},Vector3D(-0.238, -0.819, 1.697)
Q[7]{0.697152, -0.797897, -0.638482, 1.66162, -0.394982, 0.53965, -1.10637},Vector3D(-0.2345, -0.819, 1.6985)
Q[7]{0.692336, -0.7937, -0.631907, 1.66139, -0.39433, 0.539689, -1.10068},Vector3D(-0.231, -0.819, 1.7)
Q[7]{0.687508, -0.789519, -0.62529, 1.66109, -0.393707, 0.539773, -1.09498},Vector3D(-0.2275, -0.819, 1.7015)
Q[7]{0.682666, -0.785356, -0.618631, 1.66073, -0.393114, 0.539901, -1.08928},Vector3D(-0.224, -0.819, 1.703)
Q[7]{0.677812, -0.781211, -0.61193, 1.66031, -0.392552, 0.540073, -1.08356},Vector3D(-0.2205, -0.819, 1.7045)
Q[7]{0.672946, -0.777082, -0.605188, 1.65982, -0.39202, 0.540289, -1.07783},Vector3D(-0.217, -0.819, 1.706)
Q[7]{0.668069, -0.772972, -0.598406, 1.65927, -0.391519, 0.54055, -1.0721},Vector3D(-0.2135, -0.819, 1.7075)
Q[7]{0.663181, -0.768879, -0.591585, 1.65865, -0.391051, 0.540856, -1.06635},Vector3D(-0.21, -0.819, 1.709)
Q[7]{0.658282, -0.764804, -0.584724, 1.65797, -0.390616, 0.541206, -1.0606},Vector3D(-0.2065, -0.819, 1.7105)
Q[7]{0.653374, -0.760747, -0.577825, 1.65723, -0.390215, 0.5416, -1.05484},Vector3D(-0.203, -0.819, 1.712)
Q[7]{0.648457, -0.756707, -0.570889, 1.65642, -0.389847, 0.542039, -1.04907},Vector3D(-0.1995, -0.819, 1.7135)
Q[7]{0.64353, -0.752686, -0.563915, 1.65554, -0.389515, 0.542523, -1.04329},Vector3D(-0.196, -0.819, 1.715)
Q[7]{0.638596, -0.748682, -0.556905, 1.65461, -0.389217, 0.543051, -1.0375},Vector3D(-0.1925, -0.819, 1.7165)
Q[7]{0.633655, -0.744696, -0.54986, 1.6536, -0.388956, 0.543624, -1.0317},Vector3D(-0.189, -0.819, 1.718)
Q[7]{0.628706, -0.740728, -0.54278, 1.65254, -0.388731, 0.544241, -1.02589},Vector3D(-0.1855, -0.819, 1.7195)
Q[7]{0.623751, -0.736777, -0.535665, 1.65141, -0.388544, 0.544903, -1.02008},Vector3D(-0.182, -0.819, 1.721)
Q[7]{0.618791, -0.732845, -0.528517, 1.65021, -0.388394, 0.54561, -1.01426},Vector3D(-0.1785, -0.819, 1.7225)
Q[7]{0.613826, -0.72893, -0.521337, 1.64895, -0.388283, 0.546362, -1.00842},Vector3D(-0.175, -0.819, 1.724)
Q[7]{0.608857, -0.725032, -0.514124, 1.64763, -0.38821, 0.547158, -1.00258},Vector3D(-0.1715, -0.819, 1.7255)
Q[7]{0.603884, -0.721151, -0.50688, 1.64624, -0.388176, 0.547998, -0.996732},Vector3D(-0.168, -0.819, 1.727)
Q[7]{0.598908, -0.717288, -0.499606, 1.64479, -0.388183, 0.548884, -0.990874},Vector3D(-0.1645, -0.819, 1.7285)
Q[7]{0.59393, -0.713441, -0.492302, 1.64328, -0.388229, 0.549814, -0.985008},Vector3D(-0.161, -0.819, 1.73)
Q[7]{0.588951, -0.709611, -0.484969, 1.6417, -0.388316, 0.550788, -0.979134},Vector3D(-0.1575, -0.819, 1.7315)
Q[7]{0.583971, -0.705798, -0.477608, 1.64006, -0.388445, 0.551808, -0.973253},Vector3D(-0.154, -0.819, 1.733)
Q[7]{0.57899, -0.702001, -0.470219, 1.63835, -0.388615, 0.552872, -0.967363},Vector3D(-0.1505, -0.819, 1.7345)
Q[7]{0.574011, -0.698219, -0.462803, 1.63658, -0.388828, 0.553981, -0.961467},Vector3D(-0.147, -0.819, 1.736)
Q[7]{0.569032, -0.694454, -0.455362, 1.63475, -0.389082, 0.555134, -0.955563},Vector3D(-0.1435, -0.819, 1.7375)
Q[7]{0.564056, -0.690703, -0.447895, 1.63285, -0.38938, 0.556332, -0.949652},Vector3D(-0.14, -0.819, 1.739)
Q[7]{0.559083, -0.686968, -0.440404, 1.63089, -0.389721, 0.557575, -0.943735},Vector3D(-0.1365, -0.819, 1.7405)
Q[7]{0.554113, -0.683247, -0.432888, 1.62886, -0.390106, 0.558862, -0.93781},Vector3D(-0.133, -0.819, 1.742)
Q[7]{0.549147, -0.679541, -0.42535, 1.62678, -0.390535, 0.560194, -0.93188},Vector3D(-0.1295, -0.819, 1.7435)
Q[7]{0.544186, -0.675849, -0.41779, 1.62462, -0.391008, 0.56157, -0.925944},Vector3D(-0.126, -0.819, 1.745)
Q[7]{0.539231, -0.67217, -0.410207, 1.62241, -0.391526, 0.562992, -0.920002},Vector3D(-0.1225, -0.819, 1.7465)
Q[7]{0.534282, -0.668504, -0.402604, 1.62013, -0.392089, 0.564457, -0.914055},Vector3D(-0.119, -0.819, 1.748)
Q[7]{0.52934, -0.66485, -0.394981, 1.61779, -0.392697, 0.565968, -0.908103},Vector3D(-0.1155, -0.819, 1.7495)
Q[7]{0.524406, -0.661209, -0.387338, 1.61538, -0.393351, 0.567523, -0.902146},Vector3D(-0.112, -0.819, 1.751)
Q[7]{0.519481, -0.65758, -0.379676, 1.61291, -0.394051, 0.569122, -0.896185},Vector3D(-0.1085, -0.819, 1.7525)
Q[7]{0.514565, -0.653962, -0.371996, 1.61038, -0.394797, 0.570766, -0.89022},Vector3D(-0.105, -0.819, 1.754)
Q[7]{0.509658, -0.650354, -0.364298, 1.60778, -0.395589, 0.572455, -0.884251},Vector3D(-0.1015, -0.819, 1.7555)
Q[7]{0.504762, -0.646757, -0.356584, 1.60512, -0.396428, 0.574189, -0.878279},Vector3D(-0.098, -0.819, 1.757)
Q[7]{0.499878, -0.643169, -0.348853, 1.60239, -0.397314, 0.575967, -0.872305},Vector3D(-0.0945, -0.819, 1.7585)
Q[7]{0.495005, -0.63959, -0.341106, 1.59961, -0.398247, 0.577789, -0.866327},Vector3D(-0.091, -0.819, 1.76)
Q[7]{0.490144, -0.63602, -0.333344, 1.59675, -0.399227, 0.579656, -0.860348},Vector3D(-0.0875, -0.819, 1.7615)
Q[7]{0.485297, -0.632458, -0.325568, 1.59384, -0.400255, 0.581568, -0.854367},Vector3D(-0.084, -0.819, 1.763)
Q[7]{0.480464, -0.628903, -0.317777, 1.59086, -0.40133, 0.583524, -0.848385},Vector3D(-0.0805, -0.819, 1.7645)
Q[7]{0.475645, -0.625354, -0.309973, 1.58782, -0.402454, 0.585525, -0.842402},Vector3D(-0.077, -0.819, 1.766)
Q[7]{0.470841, -0.621812, -0.302156, 1.58471, -0.403626, 0.587571, -0.836418},Vector3D(-0.0735, -0.819, 1.7675)
Q[7]{0.466052, -0.618274, -0.294327, 1.58155, -0.404845, 0.589661, -0.830435},Vector3D(-0.07, -0.819, 1.769)
Q[7]{0.46128, -0.614742, -0.286485, 1.57831, -0.406114, 0.591797, -0.824453},Vector3D(-0.0665, -0.819, 1.7705)
Q[7]{0.456524, -0.611213, -0.278631, 1.57502, -0.40743, 0.593976, -0.818471},Vector3D(-0.063, -0.819, 1.772)
Q[7]{0.451785, -0.607688, -0.270766, 1.57166, -0.408796, 0.596201, -0.812491},Vector3D(-0.0595, -0.819, 1.7735)
Q[7]{0.447064, -0.604165, -0.26289, 1.56823, -0.410211, 0.59847, -0.806513},Vector3D(-0.056, -0.819, 1.775)
Q[7]{0.442362, -0.600645, -0.255004, 1.56475, -0.411674, 0.600784, -0.800537},Vector3D(-0.0525, -0.819, 1.7765)
Q[7]{0.437678, -0.597125, -0.247107, 1.5612, -0.413187, 0.603143, -0.794565},Vector3D(-0.049, -0.819, 1.778)
Q[7]{0.433014, -0.593606, -0.2392, 1.55758, -0.41475, 0.605547, -0.788596},Vector3D(-0.0455, -0.819, 1.7795)
Q[7]{0.428369, -0.590086, -0.231284, 1.5539, -0.416362, 0.607996, -0.782631},Vector3D(-0.042, -0.819, 1.781)
Q[7]{0.423744, -0.586565, -0.223358, 1.55016, -0.418023, 0.610489, -0.77667},Vector3D(-0.0385, -0.819, 1.7825)
Q[7]{0.419139, -0.583043, -0.215422, 1.54636, -0.419735, 0.613028, -0.770714},Vector3D(-0.035, -0.819, 1.784)
Q[7]{0.414556, -0.579518, -0.207477, 1.54249, -0.421497, 0.615612, -0.764764},Vector3D(-0.0315, -0.819, 1.7855)
Q[7]{0.409994, -0.575989, -0.199523, 1.53855, -0.423309, 0.618242, -0.75882},Vector3D(-0.028, -0.819, 1.787)
Q[7]{0.405453, -0.572456, -0.19156, 1.53455, -0.425172, 0.620916, -0.752882},Vector3D(-0.0245, -0.819, 1.7885)
Q[7]{0.400935, -0.568918, -0.183589, 1.53049, -0.427085, 0.623636, -0.746951},Vector3D(-0.021, -0.819, 1.79)
Q[7]{0.396439, -0.565374, -0.175608, 1.52636, -0.429049, 0.626402, -0.741028},Vector3D(-0.0175, -0.819, 1.7915)
Q[7]{0.391966, -0.561823, -0.167617, 1.52217, -0.431065, 0.629213, -0.735112},Vector3D(-0.014, -0.819, 1.793)
Q[7]{0.387515, -0.558265, -0.159618, 1.51792, -0.433132, 0.63207, -0.729206},Vector3D(-0.0105, -0.819, 1.7945)
Q[7]{0.383088, -0.554699, -0.15161, 1.5136, -0.43525, 0.634972, -0.723308},Vector3D(-0.007, -0.819, 1.796)
Q[7]{0.378684, -0.551123, -0.143592, 1.50921, -0.437421, 0.637921, -0.71742},Vector3D(-0.0035, -0.819, 1.7975)
Q[7]{0.374304, -0.547537, -0.135565, 1.50476, -0.439644, 0.640915, -0.711541},Vector3D(0, -0.819, 1.799)
Q[7]{0.374337, -0.547522, -0.135591, 1.50472, -0.439635, 0.640934, -0.71159},Vector3D(0, -0.819, 1.799)
Q[7]{0.374349, -0.547529, -0.135605, 1.50473, -0.439629, 0.64092, -0.711601},Vector3D(0, -0.819, 1.799)
Q[7]{0.374361, -0.547536, -0.135618, 1.50474, -0.439623, 0.640906, -0.711612},Vector3D(0, -0.819, 1.799)
Q[7]{0.374372, -0.547543, -0.135632, 1.50475, -0.439618, 0.640893, -0.711623},Vector3D(0, -0.819, 1.799)
Q[7]{0.374384, -0.54755, -0.135646, 1.50476, -0.439612, 0.64088, -0.711634},Vector3D(0, -0.819, 1.799)
Q[7]{0.374396, -0.547557, -0.13566, 1.50477, -0.439606, 0.640866, -0.711645},Vector3D(0, -0.819, 1.799)
Q[7]{0.374408, -0.547563, -0.135673, 1.50478, -0.4396, 0.640853, -0.711656},Vector3D(0, -0.819, 1.799)
Q[7]{0.37442, -0.54757, -0.135687, 1.50479, -0.439595, 0.640841, -0.711667},Vector3D(0, -0.819, 1.799)
Q[7]{0.374432, -0.547577, -0.135701, 1.5048, -0.439589, 0.640828, -0.711679},Vector3D(0, -0.819, 1.799)
Q[7]{0.374444, -0.547583, -0.135715, 1.50481, -0.439583, 0.640815, -0.71169},Vector3D(0, -0.819, 1.799)
Q[7]{0.374457, -0.54759, -0.135729, 1.50482, -0.439577, 0.640803, -0.711702},Vector3D(0, -0.819, 1.799)
Q[7]{0.374469, -0.547596, -0.135743, 1.50483, -0.439571, 0.64079, -0.711713},Vector3D(0, -0.819, 1.799)
Q[7]{0.374481, -0.547603, -0.135757, 1.50484, -0.439565, 0.640778, -0.711725},Vector3D(0, -0.819, 1.799)
Q[7]{0.374494, -0.547609, -0.135771, 1.50485, -0.439559, 0.640766, -0.711737},Vector3D(0, -0.819, 1.799)
Q[7]{0.374506, -0.547615, -0.135785, 1.50485, -0.439552, 0.640754, -0.711748},Vector3D(0, -0.819, 1.799)
Q[7]{0.374519, -0.547622, -0.135799, 1.50486, -0.439546, 0.640742, -0.71176},Vector3D(0, -0.819, 1.799)
Q[7]{0.374531, -0.547628, -0.135813, 1.50487, -0.43954, 0.64073, -0.711772},Vector3D(0, -0.819, 1.799)
Q[7]{0.374544, -0.547634, -0.135828, 1.50488, -0.439534, 0.640718, -0.711784},Vector3D(0, -0.819, 1.799)
Q[7]{0.374557, -0.54764, -0.135842, 1.50489, -0.439527, 0.640707, -0.711796},Vector3D(0, -0.819, 1.799)
Q[7]{0.37457, -0.547646, -0.135856, 1.5049, -0.439521, 0.640695, -0.711808},Vector3D(0, -0.819, 1.799)
Q[7]{0.374583, -0.547652, -0.135871, 1.50491, -0.439515, 0.640684, -0.71182},Vector3D(0, -0.819, 1.799)
Q[7]{0.374596, -0.547658, -0.135885, 1.50492, -0.439508, 0.640673, -0.711833},Vector3D(0, -0.819, 1.799)
Q[7]{0.374609, -0.547664, -0.135899, 1.50492, -0.439502, 0.640662, -0.711845},Vector3D(0, -0.819, 1.799)
Q[7]{0.374622, -0.54767, -0.135914, 1.50493, -0.439495, 0.640651, -0.711857},Vector3D(0, -0.819, 1.799)
Q[7]{0.374635, -0.547676, -0.135928, 1.50494, -0.439489, 0.64064, -0.71187},Vector3D(0, -0.819, 1.799)
Q[7]{0.374648, -0.547682, -0.135943, 1.50495, -0.439482, 0.640629, -0.711882},Vector3D(0, -0.819, 1.799)
Q[7]{0.374661, -0.547688, -0.135957, 1.50495, -0.439475, 0.640619, -0.711895},Vector3D(0, -0.819, 1.799)
Q[7]{0.374675, -0.547693, -0.135972, 1.50496, -0.439468, 0.640608, -0.711907},Vector3D(0, -0.819, 1.799)
Q[7]{0.374688, -0.547699, -0.135987, 1.50497, -0.439462, 0.640598, -0.71192},Vector3D(0, -0.819, 1.799)
Q[7]{0.374701, -0.547704, -0.136002, 1.50498, -0.439455, 0.640588, -0.711933},Vector3D(0, -0.819, 1.799)
Q[7]{0.374715, -0.54771, -0.136016, 1.50498, -0.439448, 0.640577, -0.711946},Vector3D(0, -0.819, 1.799)
Q[7]{0.374729, -0.547715, -0.136031, 1.50499, -0.439441, 0.640567, -0.711959},Vector3D(0, -0.819, 1.799)
Q[7]{0.374742, -0.547721, -0.136046, 1.505, -0.439434, 0.640557, -0.711972},Vector3D(0, -0.819, 1.799)
Q[7]{0.374756, -0.547726, -0.136061, 1.50501, -0.439427, 0.640548, -0.711985},Vector3D(0, -0.819, 1.799)
Q[7]{0.37477, -0.547732, -0.136076, 1.50501, -0.43942, 0.640538, -0.711998},Vector3D(0, -0.819, 1.799)
Q[7]{0.374784, -0.547737, -0.136091, 1.50502, -0.439413, 0.640528, -0.712011},Vector3D(0, -0.819, 1.799)
Q[7]{0.374798, -0.547742, -0.136106, 1.50503, -0.439406, 0.640519, -0.712024},Vector3D(0, -0.819, 1.799)
Q[7]{0.374812, -0.547747, -0.136121, 1.50503, -0.439399, 0.640509, -0.712038},Vector3D(0, -0.819, 1.799)
Q[7]{0.374826, -0.547753, -0.136136, 1.50504, -0.439391, 0.6405, -0.712051},Vector3D(0, -0.819, 1.799)
Q[7]{0.37484, -0.547758, -0.136151, 1.50504, -0.439384, 0.640491, -0.712065},Vector3D(0, -0.819, 1.799)
Q[7]{0.374854, -0.547763, -0.136166, 1.50505, -0.439377, 0.640482, -0.712078},Vector3D(0, -0.819, 1.799)
Q[7]{0.374868, -0.547768, -0.136182, 1.50506, -0.43937, 0.640473, -0.712092},Vector3D(0, -0.819, 1.799)
Q[7]{0.374883, -0.547773, -0.136197, 1.50506, -0.439362, 0.640464, -0.712106},Vector3D(0, -0.819, 1.799)
Q[7]{0.374897, -0.547778, -0.136212, 1.50507, -0.439355, 0.640456, -0.712119},Vector3D(0, -0.819, 1.799)
Q[7]{0.374911, -0.547783, -0.136228, 1.50507, -0.439347, 0.640447, -0.712133},Vector3D(0, -0.819, 1.799)
Q[7]{0.374926, -0.547787, -0.136243, 1.50508, -0.43934, 0.640438, -0.712147},Vector3D(0, -0.819, 1.799)
Q[7]{0.374941, -0.547792, -0.136259, 1.50508, -0.439332, 0.64043, -0.712161},Vector3D(0, -0.819, 1.799)
Q[7]{0.374955, -0.547797, -0.136274, 1.50509, -0.439324, 0.640422, -0.712175},Vector3D(0, -0.819, 1.799)
Q[7]{0.37497, -0.547802, -0.13629, 1.50509, -0.439317, 0.640414, -0.712189},Vector3D(0, -0.819, 1.799)
Q[7]{0.374985, -0.547806, -0.136306, 1.5051, -0.439309, 0.640406, -0.712204},Vector3D(0, -0.819, 1.799)
Q[7]{0.375, -0.547811, -0.136321, 1.5051, -0.439301, 0.640398, -0.712218},Vector3D(0, -0.819, 1.799)
Q[7]{0.375015, -0.547815, -0.136337, 1.50511, -0.439293, 0.64039, -0.712232},Vector3D(0, -0.819, 1.799)
Q[7]{0.37503, -0.54782, -0.136353, 1.50511, -0.439285, 0.640382, -0.712247},Vector3D(0, -0.819, 1.799)
Q[7]{0.375045, -0.547824, -0.136369, 1.50512, -0.439278, 0.640374, -0.712261},Vector3D(0, -0.819, 1.799)
Q[7]{0.37506, -0.547829, -0.136385, 1.50512, -0.43927, 0.640367, -0.712276},Vector3D(0, -0.819, 1.799)
Q[7]{0.375075, -0.547833, -0.136401, 1.50513, -0.439262, 0.64036, -0.71229},Vector3D(0, -0.819, 1.799)
Q[7]{0.375091, -0.547838, -0.136417, 1.50513, -0.439253, 0.640352, -0.712305},Vector3D(0, -0.819, 1.799)
Q[7]{0.375106, -0.547842, -0.136433, 1.50514, -0.439245, 0.640345, -0.71232},Vector3D(0, -0.819, 1.799)
Q[7]{0.375122, -0.547846, -0.136449, 1.50514, -0.439237, 0.640338, -0.712335},Vector3D(0, -0.819, 1.799)
Q[7]{0.375137, -0.54785, -0.136465, 1.50514, -0.439229, 0.640331, -0.71235},Vector3D(0, -0.819, 1.799)
Q[7]{0.375153, -0.547854, -0.136481, 1.50515, -0.439221, 0.640324, -0.712365},Vector3D(0, -0.819, 1.799)
Q[7]{0.375169, -0.547859, -0.136498, 1.50515, -0.439212, 0.640317, -0.71238},Vector3D(0, -0.819, 1.799)
Q[7]{0.375184, -0.547863, -0.136514, 1.50516, -0.439204, 0.640311, -0.712395},Vector3D(0, -0.819, 1.799)
Q[7]{0.3752, -0.547867, -0.13653, 1.50516, -0.439196, 0.640304, -0.71241},Vector3D(0, -0.819, 1.799)
Q[7]{0.375216, -0.547871, -0.136547, 1.50516, -0.439187, 0.640298, -0.712426},Vector3D(0, -0.819, 1.799)
Q[7]{0.375232, -0.547874, -0.136563, 1.50517, -0.439179, 0.640291, -0.712441},Vector3D(0, -0.819, 1.799)
Q[7]{0.375248, -0.547878, -0.13658, 1.50517, -0.43917, 0.640285, -0.712457},Vector3D(0, -0.819, 1.799)
Q[7]{0.375265, -0.547882, -0.136597, 1.50517, -0.439161, 0.640279, -0.712472},Vector3D(0, -0.819, 1.799)
Q[7]{0.375281, -0.547886, -0.136613, 1.50517, -0.439153, 0.640273, -0.712488},Vector3D(0, -0.819, 1.799)
Q[7]{0.375297, -0.54789, -0.13663, 1.50518, -0.439144, 0.640267, -0.712504},Vector3D(0, -0.819, 1.799)
Q[7]{0.375314, -0.547893, -0.136647, 1.50518, -0.439135, 0.640261, -0.71252},Vector3D(0, -0.819, 1.799)
Q[7]{0.37533, -0.547897, -0.136664, 1.50518, -0.439126, 0.640255, -0.712536},Vector3D(0, -0.819, 1.799)
Q[7]{0.375347, -0.5479, -0.136681, 1.50519, -0.439117, 0.64025, -0.712552},Vector3D(0, -0.819, 1.799)
Q[7]{0.375363, -0.547904, -0.136698, 1.50519, -0.439109, 0.640244, -0.712568},Vector3D(0, -0.819, 1.799)
Q[7]{0.37538, -0.547908, -0.136715, 1.50519, -0.4391, 0.640239, -0.712584},Vector3D(0, -0.819, 1.799)
Q[7]{0.375397, -0.547911, -0.136732, 1.50519, -0.43909, 0.640233, -0.7126},Vector3D(0, -0.819, 1.799)
Q[7]{0.375414, -0.547914, -0.136749, 1.50519, -0.439081, 0.640228, -0.712616},Vector3D(0, -0.819, 1.799)
Q[7]{0.375431, -0.547918, -0.136766, 1.5052, -0.439072, 0.640223, -0.712633},Vector3D(0, -0.819, 1.799)
Q[7]{0.375448, -0.547921, -0.136784, 1.5052, -0.439063, 0.640218, -0.712649},Vector3D(0, -0.819, 1.799)
Q[7]{0.375465, -0.547924, -0.136801, 1.5052, -0.439054, 0.640213, -0.712666},Vector3D(0, -0.819, 1.799)
Q[7]{0.375482, -0.547928, -0.136818, 1.5052, -0.439044, 0.640208, -0.712683},Vector3D(0, -0.819, 1.799)
Q[7]{0.3755, -0.547931, -0.136836, 1.5052, -0.439035, 0.640204, -0.712699},Vector3D(0, -0.819, 1.799)
Q[7]{0.375517, -0.547934, -0.136853, 1.5052, -0.439026, 0.640199, -0.712716},Vector3D(0, -0.819, 1.799)
Q[7]{0.375534, -0.547937, -0.136871, 1.50521, -0.439016, 0.640195, -0.712733},Vector3D(0, -0.819, 1.799)
Q[7]{0.375552, -0.54794, -0.136889, 1.50521, -0.439007, 0.64019, -0.71275},Vector3D(0, -0.819, 1.799)
Q[7]{0.37557, -0.547943, -0.136906, 1.50521, -0.438997, 0.640186, -0.712767},Vector3D(0, -0.819, 1.799)
Q[7]{0.375587, -0.547946, -0.136924, 1.50521, -0.438987, 0.640182, -0.712785},Vector3D(0, -0.819, 1.799)
Q[7]{0.375605, -0.547949, -0.136942, 1.50521, -0.438978, 0.640178, -0.712802},Vector3D(0, -0.819, 1.799)
Q[7]{0.375623, -0.547951, -0.13696, 1.50521, -0.438968, 0.640174, -0.712819},Vector3D(0, -0.819, 1.799)
Q[7]{0.375641, -0.547954, -0.136978, 1.50521, -0.438958, 0.64017, -0.712837},Vector3D(0, -0.819, 1.799)
Q[7]{0.375659, -0.547957, -0.136996, 1.50521, -0.438948, 0.640166, -0.712854},Vector3D(0, -0.819, 1.799)
Q[7]{0.375678, -0.54796, -0.137014, 1.50521, -0.438938, 0.640163, -0.712872},Vector3D(0, -0.819, 1.799)
Q[7]{0.375696, -0.547962, -0.137033, 1.50521, -0.438928, 0.640159, -0.71289},Vector3D(0, -0.819, 1.799)
Q[7]{0.375714, -0.547965, -0.137051, 1.50521, -0.438918, 0.640156, -0.712908},Vector3D(0, -0.819, 1.799)
Q[7]{0.375733, -0.547967, -0.137069, 1.50521, -0.438908, 0.640152, -0.712925},Vector3D(0, -0.819, 1.799)
Q[7]{0.375751, -0.54797, -0.137088, 1.50521, -0.438898, 0.640149, -0.712944},Vector3D(0, -0.819, 1.799)
Q[7]{0.37577, -0.547972, -0.137106, 1.50521, -0.438888, 0.640146, -0.712962},Vector3D(0, -0.819, 1.799)
Q[7]{0.375789, -0.547975, -0.137125, 1.50521, -0.438878, 0.640143, -0.71298},Vector3D(0, -0.819, 1.799)
Q[7]{0.375808, -0.547977, -0.137143, 1.50521, -0.438867, 0.64014, -0.712998},Vector3D(0, -0.819, 1.799)
Q[7]{0.375826, -0.547979, -0.137162, 1.50521, -0.438857, 0.640137, -0.713017},Vector3D(0, -0.819, 1.799)
Q[7]{0.383639, -0.549962, -0.146439, 1.50531, -0.438715, 0.640089, -0.728327},Vector3D(-0.0035, -0.819, 1.799)
Q[7]{0.3915, -0.551886, -0.155697, 1.50518, -0.438599, 0.640188, -0.74367},Vector3D(-0.007, -0.819, 1.799)
Q[7]{0.399363, -0.553827, -0.164916, 1.50498, -0.438531, 0.640328, -0.758989},Vector3D(-0.0105, -0.819, 1.799)
Q[7]{0.407228, -0.555787, -0.174097, 1.50473, -0.438512, 0.640511, -0.774285},Vector3D(-0.014, -0.819, 1.799)
Q[7]{0.415096, -0.557766, -0.183239, 1.50442, -0.438542, 0.640735, -0.789559},Vector3D(-0.0175, -0.819, 1.799)
Q[7]{0.422965, -0.559765, -0.192342, 1.50406, -0.438621, 0.641001, -0.804809},Vector3D(-0.021, -0.819, 1.799)
Q[7]{0.430836, -0.561783, -0.201405, 1.50364, -0.43875, 0.64131, -0.820035},Vector3D(-0.0245, -0.819, 1.799)
Q[7]{0.438709, -0.563822, -0.210426, 1.50317, -0.438928, 0.64166, -0.835237},Vector3D(-0.028, -0.819, 1.799)
Q[7]{0.446582, -0.565881, -0.219406, 1.50264, -0.439156, 0.642052, -0.850414},Vector3D(-0.0315, -0.819, 1.799)
Q[7]{0.454455, -0.567961, -0.228342, 1.50205, -0.439435, 0.642487, -0.865567},Vector3D(-0.035, -0.819, 1.799)
Q[7]{0.462329, -0.570062, -0.237235, 1.5014, -0.439763, 0.642964, -0.880694},Vector3D(-0.0385, -0.819, 1.799)
Q[7]{0.470202, -0.572184, -0.246083, 1.5007, -0.440142, 0.643483, -0.895795},Vector3D(-0.042, -0.819, 1.799)
Q[7]{0.478074, -0.574328, -0.254885, 1.49995, -0.440572, 0.644044, -0.91087},Vector3D(-0.0455, -0.819, 1.799)
Q[7]{0.485945, -0.576494, -0.263641, 1.49913, -0.441052, 0.644647, -0.925919},Vector3D(-0.049, -0.819, 1.799)
Q[7]{0.493814, -0.578682, -0.272349, 1.49826, -0.441583, 0.645293, -0.940942},Vector3D(-0.0525, -0.819, 1.799)
Q[7]{0.501681, -0.580893, -0.281008, 1.49734, -0.442166, 0.645982, -0.955937},Vector3D(-0.056, -0.819, 1.799)
Q[7]{0.509545, -0.583126, -0.289617, 1.49636, -0.442799, 0.646713, -0.970906},Vector3D(-0.0595, -0.819, 1.799)
Q[7]{0.517405, -0.585382, -0.298176, 1.49532, -0.443483, 0.647486, -0.985847},Vector3D(-0.063, -0.819, 1.799)
Q[7]{0.525262, -0.587662, -0.306684, 1.49422, -0.444218, 0.648303, -1.00076},Vector3D(-0.0665, -0.819, 1.799)
Q[7]{0.533114, -0.589964, -0.315138, 1.49307, -0.445005, 0.649161, -1.01565},Vector3D(-0.07, -0.819, 1.799)
Q[7]{0.54096, -0.59229, -0.323539, 1.49186, -0.445842, 0.650063, -1.03051},Vector3D(-0.0735, -0.819, 1.799)
Q[7]{0.548801, -0.59464, -0.331886, 1.4906, -0.44673, 0.651007, -1.04534},Vector3D(-0.077, -0.819, 1.799)
Q[7]{0.556636, -0.597013, -0.340176, 1.48928, -0.44767, 0.651993, -1.06014},Vector3D(-0.0805, -0.819, 1.799)
Q[7]{0.564464, -0.59941, -0.34841, 1.4879, -0.448659, 0.653023, -1.07492},Vector3D(-0.084, -0.819, 1.799)
Q[7]{0.572284, -0.601831, -0.356586, 1.48647, -0.4497, 0.654095, -1.08966},Vector3D(-0.0875, -0.819, 1.799)
Q[7]{0.580097, -0.604276, -0.364704, 1.48498, -0.45079, 0.65521, -1.10438},Vector3D(-0.091, -0.819, 1.799)
Q[7]{0.5879, -0.606745, -0.372762, 1.48343, -0.451931, 0.656367, -1.11907},Vector3D(-0.0945, -0.819, 1.799)
Q[7]{0.595694, -0.609238, -0.380759, 1.48183, -0.453122, 0.657568, -1.13374},Vector3D(-0.098, -0.819, 1.799)
Q[7]{0.603479, -0.611756, -0.388694, 1.48016, -0.454362, 0.658811, -1.14838},Vector3D(-0.1015, -0.819, 1.799)
Q[7]{0.611252, -0.614297, -0.396567, 1.47845, -0.455651, 0.660097, -1.16298},Vector3D(-0.105, -0.819, 1.799)
Q[7]{0.619014, -0.616862, -0.404376, 1.47667, -0.45699, 0.661425, -1.17757},Vector3D(-0.1085, -0.819, 1.799)
Q[7]{0.626765, -0.619451, -0.41212, 1.47484, -0.458377, 0.662796, -1.19212},Vector3D(-0.112, -0.819, 1.799)
Q[7]{0.634502, -0.622064, -0.419799, 1.47295, -0.459812, 0.66421, -1.20665},Vector3D(-0.1155, -0.819, 1.799)
Q[7]{0.642227, -0.624701, -0.427411, 1.47101, -0.461295, 0.665667, -1.22115},Vector3D(-0.119, -0.819, 1.799)
Q[7]{0.649937, -0.627361, -0.434956, 1.46901, -0.462825, 0.667166, -1.23563},Vector3D(-0.1225, -0.819, 1.799)
Q[7]{0.657633, -0.630045, -0.442432, 1.46695, -0.464402, 0.668707, -1.25008},Vector3D(-0.126, -0.819, 1.799)
Q[7]{0.665314, -0.632752, -0.449839, 1.46483, -0.466025, 0.670291, -1.2645},Vector3D(-0.1295, -0.819, 1.799)
Q[7]{0.67298, -0.635483, -0.457176, 1.46266, -0.467693, 0.671918, -1.2789},Vector3D(-0.133, -0.819, 1.799)
Q[7]{0.680628, -0.638236, -0.464443, 1.46043, -0.469407, 0.673586, -1.29327},Vector3D(-0.1365, -0.819, 1.799)
Q[7]{0.68826, -0.641011, -0.471637, 1.45815, -0.471165, 0.675297, -1.30762},Vector3D(-0.14, -0.819, 1.799)
Q[7]{0.695874, -0.64381, -0.478759, 1.4558, -0.472967, 0.677051, -1.32195},Vector3D(-0.1435, -0.819, 1.799)
Q[7]{0.70347, -0.64663, -0.485807, 1.4534, -0.474811, 0.678846, -1.33625},Vector3D(-0.147, -0.819, 1.799)
Q[7]{0.711047, -0.649471, -0.492782, 1.45095, -0.476698, 0.680683, -1.35053},Vector3D(-0.1505, -0.819, 1.799)
Q[7]{0.718604, -0.652335, -0.499681, 1.44843, -0.478627, 0.682562, -1.36479},Vector3D(-0.154, -0.819, 1.799)
Q[7]{0.726142, -0.655219, -0.506506, 1.44586, -0.480597, 0.684483, -1.37902},Vector3D(-0.1575, -0.819, 1.799)
Q[7]{0.733659, -0.658123, -0.513254, 1.44323, -0.482606, 0.686446, -1.39324},Vector3D(-0.161, -0.819, 1.799)
Q[7]{0.741155, -0.661048, -0.519925, 1.44055, -0.484655, 0.68845, -1.40743},Vector3D(-0.1645, -0.819, 1.799)
Q[7]{0.748629, -0.663993, -0.526519, 1.4378, -0.486742, 0.690495, -1.4216},Vector3D(-0.168, -0.819, 1.799)
Q[7]{0.756081, -0.666956, -0.533036, 1.435, -0.488867, 0.692582, -1.43576},Vector3D(-0.1715, -0.819, 1.799)
Q[7]{0.76351, -0.669939, -0.539474, 1.43214, -0.491028, 0.694709, -1.44989},Vector3D(-0.175, -0.819, 1.799)
Q[7]{0.770916, -0.672939, -0.545833, 1.42923, -0.493225, 0.696877, -1.46401},Vector3D(-0.1785, -0.819, 1.799)
Q[7]{0.778298, -0.675957, -0.552112, 1.42626, -0.495456, 0.699086, -1.47811},Vector3D(-0.182, -0.819, 1.799)
Q[7]{0.785656, -0.678993, -0.558312, 1.42322, -0.497722, 0.701336, -1.49219},Vector3D(-0.1855, -0.819, 1.799)
Q[7]{0.79299, -0.682044, -0.564432, 1.42014, -0.50002, 0.703626, -1.50626},Vector3D(-0.189, -0.819, 1.799)
Q[7]{0.800299, -0.685112, -0.570471, 1.41699, -0.50235, 0.705956, -1.52032},Vector3D(-0.1925, -0.819, 1.799)
Q[7]{0.807582, -0.688195, -0.57643, 1.41379, -0.504711, 0.708325, -1.53435},Vector3D(-0.196, -0.819, 1.799)
Q[7]{0.81484, -0.691292, -0.582307, 1.41053, -0.507102, 0.710735, -1.54838},Vector3D(-0.1995, -0.819, 1.799)
Q[7]{0.822072, -0.694403, -0.588104, 1.40721, -0.509521, 0.713184, -1.56239},Vector3D(-0.203, -0.819, 1.799)
Q[7]{0.829277, -0.697527, -0.593818, 1.40383, -0.511969, 0.715671, -1.57639},Vector3D(-0.2065, -0.819, 1.799)
Q[7]{0.836456, -0.700664, -0.599451, 1.4004, -0.514442, 0.718198, -1.59038},Vector3D(-0.21, -0.819, 1.799)
Q[7]{0.843607, -0.703812, -0.605003, 1.3969, -0.516942, 0.720764, -1.60436},Vector3D(-0.2135, -0.819, 1.799)
Q[7]{0.850732, -0.706971, -0.610473, 1.39335, -0.519466, 0.723368, -1.61833},Vector3D(-0.217, -0.819, 1.799)
Q[7]{0.857829, -0.71014, -0.61586, 1.38974, -0.522014, 0.72601, -1.63229},Vector3D(-0.2205, -0.819, 1.799)
Q[7]{0.864898, -0.713319, -0.621166, 1.38607, -0.524584, 0.728689, -1.64624},Vector3D(-0.224, -0.819, 1.799)
Q[7]{0.871939, -0.716506, -0.626391, 1.38235, -0.527175, 0.731407, -1.66019},Vector3D(-0.2275, -0.819, 1.799)
Q[7]{0.878953, -0.7197, -0.631533, 1.37856, -0.529787, 0.734161, -1.67413},Vector3D(-0.231, -0.819, 1.799)
Q[7]{0.885938, -0.722902, -0.636594, 1.37472, -0.532418, 0.736953, -1.68807},Vector3D(-0.2345, -0.819, 1.799)
Q[7]{0.892895, -0.726109, -0.641574, 1.37082, -0.535067, 0.739781, -1.702},Vector3D(-0.238, -0.819, 1.799)
Q[7]{0.899824, -0.729322, -0.646472, 1.36686, -0.537733, 0.742645, -1.71592},Vector3D(-0.2415, -0.819, 1.799)
Q[7]{0.906724, -0.732539, -0.651289, 1.36284, -0.540416, 0.745546, -1.72985},Vector3D(-0.245, -0.819, 1.799)
Q[7]{0.913596, -0.735759, -0.656026, 1.35876, -0.543113, 0.748482, -1.74377},Vector3D(-0.2485, -0.819, 1.799)
Q[7]{0.920439, -0.738981, -0.660682, 1.35462, -0.545823, 0.751453, -1.75769},Vector3D(-0.252, -0.819, 1.799)
Q[7]{0.927254, -0.742205, -0.665258, 1.35042, -0.548547, 0.75446, -1.77161},Vector3D(-0.2555, -0.819, 1.799)
Q[7]{0.93404, -0.745429, -0.669754, 1.34616, -0.551283, 0.757501, -1.78553},Vector3D(-0.259, -0.819, 1.799)
Q[7]{0.940798, -0.748653, -0.674171, 1.34184, -0.554029, 0.760576, -1.79945},Vector3D(-0.2625, -0.819, 1.799)
Q[7]{0.947528, -0.751876, -0.678509, 1.33747, -0.556785, 0.763685, -1.81338},Vector3D(-0.266, -0.819, 1.799)
Q[7]{0.954229, -0.755096, -0.682769, 1.33303, -0.559549, 0.766828, -1.8273},Vector3D(-0.2695, -0.819, 1.799)
Q[7]{0.960903, -0.758313, -0.686951, 1.32853, -0.562322, 0.770004, -1.84124},Vector3D(-0.273, -0.819, 1.799)
Q[7]{0.967548, -0.761526, -0.691055, 1.32397, -0.565101, 0.773213, -1.85517},Vector3D(-0.2765, -0.819, 1.799)
Q[7]{0.974166, -0.764733, -0.695083, 1.31935, -0.567885, 0.776455, -1.86911},Vector3D(-0.28, -0.819, 1.799)
Q[7]{0.980756, -0.767934, -0.699034, 1.31467, -0.570675, 0.779728, -1.88306},Vector3D(-0.2835, -0.819, 1.799)
Q[7]{0.98732, -0.771128, -0.70291, 1.30993, -0.573468, 0.783034, -1.89701},Vector3D(-0.287, -0.819, 1.799)
Q[7]{0.993856, -0.774314, -0.706711, 1.30512, -0.576264, 0.78637, -1.91097},Vector3D(-0.2905, -0.819, 1.799)
Q[7]{1.00036, -0.777491, -0.710437, 1.30026, -0.579063, 0.789738, -1.92494},Vector3D(-0.294, -0.819, 1.799)
Q[7]{1.00685, -0.780657, -0.71409, 1.29533, -0.581862, 0.793137, -1.93892},Vector3D(-0.2975, -0.819, 1.799)
Q[7]{1.0133, -0.783813, -0.71767, 1.29034, -0.584662, 0.796566, -1.95291},Vector3D(-0.301, -0.819, 1.799)
Q[7]{1.01974, -0.786956, -0.721178, 1.28529, -0.587461, 0.800025, -1.96691},Vector3D(-0.3045, -0.819, 1.799)
Q[7]{1.02614, -0.790086, -0.724614, 1.28017, -0.590258, 0.803513, -1.98092},Vector3D(-0.308, -0.819, 1.799)
Q[7]{1.03252, -0.793201, -0.72798, 1.27499, -0.593054, 0.807031, -1.99494},Vector3D(-0.3115, -0.819, 1.799)
Q[7]{1.03888, -0.796302, -0.731276, 1.26975, -0.595846, 0.810577, -2.00898},Vector3D(-0.315, -0.819, 1.799)
Q[7]{1.04521, -0.799387, -0.734503, 1.26444, -0.598635, 0.814153, -2.02303},Vector3D(-0.3185, -0.819, 1.799)
Q[7]{1.05152, -0.802454, -0.737662, 1.25907, -0.601419, 0.817756, -2.03709},Vector3D(-0.322, -0.819, 1.799)
Q[7]{1.0578, -0.805503, -0.740754, 1.25363, -0.604197, 0.821387, -2.05117},Vector3D(-0.3255, -0.819, 1.799)
Q[7]{1.06406, -0.808533, -0.743779, 1.24813, -0.60697, 0.825046, -2.06526},Vector3D(-0.329, -0.819, 1.799)
Q[7]{1.0703, -0.811543, -0.746739, 1.24257, -0.609736, 0.828732, -2.07937},Vector3D(-0.3325, -0.819, 1.799)
Q[7]{1.07652, -0.814532, -0.749634, 1.23693, -0.612495, 0.832445, -2.09349},Vector3D(-0.336, -0.819, 1.799)
Q[7]{1.08271, -0.817499, -0.752466, 1.23124, -0.615245, 0.836184, -2.10763},Vector3D(-0.3395, -0.819, 1.799)
Q[7]{1.08889, -0.820443, -0.755234, 1.22547, -0.617988, 0.83995, -2.12179},Vector3D(-0.343, -0.819, 1.799)
Q[7]{1.09504, -0.823363, -0.757941, 1.21964, -0.620721, 0.843741, -2.13597},Vector3D(-0.3465, -0.819, 1.799)
